G04 PROTEUS RS274X GERBER FILE*
%FSLAX24Y24*%
%MOIN*%
%ADD16C,0.0080*%
G54D16*
X-4846Y+32535D02*
X-2846Y+32535D01*
X-2846Y+33535D01*
X-4846Y+33535D01*
X-4846Y+32535D01*
X-5057Y+33826D02*
X-5057Y+34186D01*
X-4745Y+34186D01*
X-4682Y+34126D01*
X-4682Y+34066D01*
X-4745Y+34006D01*
X-4682Y+33946D01*
X-4682Y+33886D01*
X-4745Y+33826D01*
X-5057Y+33826D01*
X-5057Y+34006D02*
X-4745Y+34006D01*
X-4557Y+34066D02*
X-4432Y+34186D01*
X-4307Y+34186D01*
X-4182Y+34066D01*
X-4182Y+33946D01*
X-4307Y+33826D01*
X-4432Y+33826D01*
X-4557Y+33946D01*
X-4557Y+34066D01*
X-4057Y+34186D02*
X-3682Y+34186D01*
X-3870Y+34186D02*
X-3870Y+33826D01*
X-3557Y+33826D02*
X-3557Y+34066D01*
X-3432Y+34186D01*
X-3307Y+34186D01*
X-3182Y+34066D01*
X-3182Y+33826D01*
X-3557Y+33946D02*
X-3182Y+33946D01*
X-3057Y+34066D02*
X-2932Y+34186D01*
X-2807Y+34186D01*
X-2682Y+34066D01*
X-2682Y+33946D01*
X-2807Y+33826D01*
X-2932Y+33826D01*
X-3057Y+33946D01*
X-3057Y+34066D01*
X-2341Y+32535D02*
X-341Y+32535D01*
X-341Y+33535D01*
X-2341Y+33535D01*
X-2341Y+32535D01*
X-2223Y+33856D02*
X-2223Y+34216D01*
X-1911Y+34216D01*
X-1848Y+34156D01*
X-1848Y+34096D01*
X-1911Y+34036D01*
X-2223Y+34036D01*
X-1723Y+34216D02*
X-1723Y+33916D01*
X-1661Y+33856D01*
X-1411Y+33856D01*
X-1348Y+33916D01*
X-1348Y+34216D01*
X-1223Y+33916D02*
X-1161Y+33856D01*
X-911Y+33856D01*
X-848Y+33916D01*
X-848Y+33976D01*
X-911Y+34036D01*
X-1161Y+34036D01*
X-1223Y+34096D01*
X-1223Y+34156D01*
X-1161Y+34216D01*
X-911Y+34216D01*
X-848Y+34156D01*
X-723Y+33856D02*
X-723Y+34216D01*
X-348Y+34216D02*
X-348Y+33856D01*
X-723Y+34036D02*
X-348Y+34036D01*
X-2880Y+17531D02*
X+7309Y+17531D01*
X+7309Y+23873D01*
X-2880Y+23873D01*
X-2880Y+17531D01*
X+1696Y+24169D02*
X+1336Y+24169D01*
X+1516Y+24356D01*
X+1336Y+24544D01*
X+1696Y+24544D01*
X+1456Y+24794D02*
X+1336Y+24919D01*
X+1696Y+24919D01*
X-4044Y+20240D02*
X-4044Y+20740D01*
X-4294Y+20740D02*
X-3794Y+20740D01*
X-3794Y+22740D01*
X-4294Y+22740D01*
X-4294Y+20740D01*
X-4044Y+22740D02*
X-4044Y+23240D01*
X-3155Y+21161D02*
X-3515Y+21161D01*
X-3515Y+21473D01*
X-3455Y+21536D01*
X-3395Y+21536D01*
X-3335Y+21473D01*
X-3335Y+21161D01*
X-3335Y+21473D02*
X-3275Y+21536D01*
X-3155Y+21536D01*
X-3455Y+22036D02*
X-3515Y+21973D01*
X-3515Y+21786D01*
X-3455Y+21723D01*
X-3215Y+21723D01*
X-3155Y+21786D01*
X-3155Y+21973D01*
X-3215Y+22036D01*
X-3275Y+22036D01*
X-3335Y+21973D01*
X-3335Y+21723D01*
X+8593Y+23177D02*
X+8593Y+22677D01*
X+8343Y+20677D02*
X+8843Y+20677D01*
X+8843Y+22677D01*
X+8343Y+22677D01*
X+8343Y+20677D01*
X+8593Y+20677D02*
X+8593Y+20177D01*
X+9649Y+21366D02*
X+9289Y+21366D01*
X+9289Y+21678D01*
X+9349Y+21741D01*
X+9409Y+21741D01*
X+9469Y+21678D01*
X+9469Y+21366D01*
X+9469Y+21678D02*
X+9529Y+21741D01*
X+9649Y+21741D01*
X+9289Y+21928D02*
X+9289Y+22241D01*
X+9349Y+22241D01*
X+9649Y+21928D01*
X-1439Y+3050D02*
X+5660Y+3050D01*
X+5660Y+22093D01*
X-1439Y+22093D01*
X-1439Y+3050D01*
X+1807Y+22410D02*
X+1807Y+22650D01*
X+1932Y+22770D01*
X+2057Y+22770D01*
X+2182Y+22650D01*
X+2182Y+22410D01*
X+1807Y+22530D02*
X+2182Y+22530D01*
X+2432Y+22650D02*
X+2557Y+22770D01*
X+2557Y+22410D01*
X-3582Y-15110D02*
X+7440Y-15110D01*
X+7440Y+1425D01*
X-3582Y+1425D01*
X-3582Y-15110D01*
X+1389Y+2260D02*
X+1764Y+1900D01*
X+1389Y+1900D02*
X+1764Y+2260D01*
X+2014Y+2140D02*
X+2139Y+2260D01*
X+2139Y+1900D01*
X+1212Y-19359D02*
X+1212Y-18859D01*
X+1712Y-18359D02*
X+1702Y-18257D01*
X+1675Y-18163D01*
X+1630Y-18078D01*
X+1571Y-18004D01*
X+1498Y-17943D01*
X+1412Y-17898D01*
X+1317Y-17869D01*
X+1212Y-17859D01*
X+1712Y-18359D02*
X+1702Y-18464D01*
X+1675Y-18559D01*
X+1630Y-18645D01*
X+1571Y-18718D01*
X+1498Y-18777D01*
X+1412Y-18822D01*
X+1317Y-18849D01*
X+1212Y-18859D01*
X+1212Y-17859D02*
X+1212Y-17359D01*
X+9212Y-19359D02*
X+9212Y-17359D01*
X+1212Y-19359D02*
X+9212Y-19359D01*
X+9212Y-17359D02*
X+1212Y-17359D01*
X+574Y-18269D02*
X+874Y-18269D01*
X+934Y-18207D01*
X+934Y-17957D01*
X+874Y-17894D01*
X+574Y-17894D01*
X+694Y-17644D02*
X+574Y-17519D01*
X+934Y-17519D01*
X-1641Y-17109D02*
X-2141Y-17109D01*
X-4141Y-17359D02*
X-2141Y-17359D01*
X-2141Y-16859D01*
X-4141Y-16859D01*
X-4141Y-17359D01*
X-4141Y-17109D02*
X-4641Y-17109D01*
X-3641Y-16596D02*
X-3641Y-16236D01*
X-3329Y-16236D01*
X-3266Y-16296D01*
X-3266Y-16356D01*
X-3329Y-16416D01*
X-3641Y-16416D01*
X-3329Y-16416D02*
X-3266Y-16476D01*
X-3266Y-16596D01*
X-2766Y-16476D02*
X-3141Y-16476D01*
X-2891Y-16236D01*
X-2891Y-16596D01*
X-3688Y-19279D02*
X-3688Y-18779D01*
X+311Y-18779D01*
X+311Y-20779D01*
X-3688Y-20779D01*
X-3688Y-20279D01*
X-3188Y-19779D02*
X-3198Y-19677D01*
X-3225Y-19583D01*
X-3270Y-19498D01*
X-3329Y-19424D01*
X-3402Y-19363D01*
X-3488Y-19318D01*
X-3583Y-19289D01*
X-3688Y-19279D01*
X-3188Y-19779D02*
X-3198Y-19884D01*
X-3225Y-19979D01*
X-3270Y-20065D01*
X-3329Y-20138D01*
X-3402Y-20197D01*
X-3488Y-20242D01*
X-3583Y-20269D01*
X-3688Y-20279D01*
X-4208Y-20279D02*
X-3908Y-20279D01*
X-3848Y-20217D01*
X-3848Y-19967D01*
X-3908Y-19904D01*
X-4208Y-19904D01*
X-4148Y-19717D02*
X-4208Y-19654D01*
X-4208Y-19467D01*
X-4148Y-19404D01*
X-4088Y-19404D01*
X-4028Y-19467D01*
X-4028Y-19654D01*
X-3968Y-19717D01*
X-3848Y-19717D01*
X-3848Y-19404D01*
X-5157Y-19144D02*
X-5157Y-19644D01*
X-5407Y-21644D02*
X-4907Y-21644D01*
X-4907Y-19644D01*
X-5407Y-19644D01*
X-5407Y-21644D01*
X-5157Y-21644D02*
X-5157Y-22144D01*
X-5686Y-21144D02*
X-6046Y-21144D01*
X-6046Y-20832D01*
X-5986Y-20769D01*
X-5926Y-20769D01*
X-5866Y-20832D01*
X-5866Y-21144D01*
X-5866Y-20832D02*
X-5806Y-20769D01*
X-5686Y-20769D01*
X-5986Y-20582D02*
X-6046Y-20519D01*
X-6046Y-20332D01*
X-5986Y-20269D01*
X-5926Y-20269D01*
X-5866Y-20332D01*
X-5806Y-20269D01*
X-5746Y-20269D01*
X-5686Y-20332D01*
X-5686Y-20519D01*
X-5746Y-20582D01*
X-5866Y-20457D02*
X-5866Y-20332D01*
X-2007Y-22449D02*
X-2007Y-22949D01*
X-2007Y-22449D02*
X-1507Y-22699D01*
X-2007Y-22949D02*
X-1507Y-22699D01*
X-1507Y-22449D02*
X-1507Y-22949D01*
X-2807Y-22699D02*
X-2007Y-22699D01*
X-1507Y-22699D02*
X-807Y-22699D01*
X-2307Y-22289D02*
X-2307Y-21929D01*
X-2057Y-21929D01*
X-1932Y-22049D01*
X-1932Y-22169D01*
X-2057Y-22289D01*
X-2307Y-22289D01*
X-1682Y-22049D02*
X-1557Y-21929D01*
X-1557Y-22289D01*
X-1614Y-24091D02*
X-1614Y-23591D01*
X-1614Y-24091D02*
X-2114Y-23841D01*
X-1614Y-23591D02*
X-2114Y-23841D01*
X-2114Y-24091D02*
X-2114Y-23591D01*
X-814Y-23841D02*
X-1614Y-23841D01*
X-2114Y-23841D02*
X-2814Y-23841D01*
X-2314Y-24611D02*
X-2314Y-24251D01*
X-2064Y-24251D01*
X-1939Y-24371D01*
X-1939Y-24491D01*
X-2064Y-24611D01*
X-2314Y-24611D01*
X-1752Y-24311D02*
X-1689Y-24251D01*
X-1502Y-24251D01*
X-1439Y-24311D01*
X-1439Y-24371D01*
X-1502Y-24431D01*
X-1689Y-24431D01*
X-1752Y-24491D01*
X-1752Y-24611D01*
X-1439Y-24611D01*
X+2802Y-21999D02*
X+2799Y-21919D01*
X+2773Y-21758D01*
X+2718Y-21597D01*
X+2628Y-21436D01*
X+2492Y-21275D01*
X+2331Y-21150D01*
X+2170Y-21069D01*
X+2009Y-21021D01*
X+1848Y-21000D01*
X+1802Y-20999D01*
X+802Y-21999D02*
X+805Y-21919D01*
X+831Y-21758D01*
X+886Y-21597D01*
X+976Y-21436D01*
X+1112Y-21275D01*
X+1273Y-21150D01*
X+1434Y-21069D01*
X+1595Y-21021D01*
X+1756Y-21000D01*
X+1802Y-20999D01*
X+802Y-21999D02*
X+805Y-22079D01*
X+831Y-22240D01*
X+886Y-22401D01*
X+976Y-22562D01*
X+1112Y-22723D01*
X+1273Y-22848D01*
X+1434Y-22929D01*
X+1595Y-22977D01*
X+1756Y-22998D01*
X+1802Y-22999D01*
X+2802Y-21999D02*
X+2799Y-22079D01*
X+2773Y-22240D01*
X+2718Y-22401D01*
X+2628Y-22562D01*
X+2492Y-22723D01*
X+2331Y-22848D01*
X+2170Y-22929D01*
X+2009Y-22977D01*
X+1848Y-22998D01*
X+1802Y-22999D01*
X+2302Y-21249D02*
X+2302Y-21749D01*
X+2552Y-21499D02*
X+2052Y-21499D01*
X+3379Y-22114D02*
X+3439Y-22177D01*
X+3439Y-22364D01*
X+3319Y-22489D01*
X+3199Y-22489D01*
X+3079Y-22364D01*
X+3079Y-22177D01*
X+3139Y-22114D01*
X+3139Y-21927D02*
X+3079Y-21864D01*
X+3079Y-21677D01*
X+3139Y-21614D01*
X+3199Y-21614D01*
X+3259Y-21677D01*
X+3319Y-21614D01*
X+3379Y-21614D01*
X+3439Y-21677D01*
X+3439Y-21864D01*
X+3379Y-21927D01*
X+3259Y-21802D02*
X+3259Y-21677D01*
X+3743Y-23504D02*
X+7743Y-23504D01*
X+7743Y-21004D01*
X+3743Y-21004D01*
X+3743Y-23504D01*
X+3743Y-21504D02*
X+7743Y-21504D01*
X+5243Y-20724D02*
X+5243Y-20784D01*
X+5305Y-20844D01*
X+5555Y-20844D01*
X+5618Y-20784D01*
X+5618Y-20484D01*
X+6118Y-20604D02*
X+6055Y-20664D01*
X+5868Y-20664D01*
X+5805Y-20604D01*
X+5805Y-20544D01*
X+5868Y-20484D01*
X+6055Y-20484D01*
X+6118Y-20544D01*
X+6118Y-20784D01*
X+6055Y-20844D01*
X+5868Y-20844D01*
X+8912Y-23103D02*
X+8810Y-23083D01*
X+8716Y-23026D01*
X+8631Y-22934D01*
X+8557Y-22813D01*
X+8496Y-22666D01*
X+8451Y-22496D01*
X+8422Y-22307D01*
X+8412Y-22103D01*
X+8912Y-21103D02*
X+8810Y-21123D01*
X+8716Y-21180D01*
X+8631Y-21272D01*
X+8557Y-21393D01*
X+8496Y-21540D01*
X+8451Y-21710D01*
X+8422Y-21899D01*
X+8412Y-22103D01*
X+8912Y-23103D02*
X+9014Y-23083D01*
X+9108Y-23026D01*
X+9193Y-22934D01*
X+9267Y-22813D01*
X+9328Y-22666D01*
X+9373Y-22496D01*
X+9402Y-22307D01*
X+9412Y-22103D01*
X+8912Y-21103D02*
X+9014Y-21123D01*
X+9108Y-21180D01*
X+9193Y-21272D01*
X+9267Y-21393D01*
X+9328Y-21540D01*
X+9373Y-21710D01*
X+9402Y-21899D01*
X+9412Y-22103D01*
X+10003Y-21283D02*
X+10063Y-21346D01*
X+10063Y-21533D01*
X+9943Y-21658D01*
X+9823Y-21658D01*
X+9703Y-21533D01*
X+9703Y-21346D01*
X+9763Y-21283D01*
X+9823Y-21033D02*
X+9703Y-20908D01*
X+10063Y-20908D01*
X-3307Y-28498D02*
X-3307Y-27998D01*
X-3557Y-27998D02*
X-3057Y-27998D01*
X-3057Y-25998D01*
X-3557Y-25998D01*
X-3557Y-27998D01*
X-3307Y-25998D02*
X-3307Y-25498D01*
X-2339Y-27577D02*
X-2699Y-27577D01*
X-2699Y-27265D01*
X-2639Y-27202D01*
X-2579Y-27202D01*
X-2519Y-27265D01*
X-2519Y-27577D01*
X-2519Y-27265D02*
X-2459Y-27202D01*
X-2339Y-27202D01*
X-2519Y-26952D02*
X-2579Y-27015D01*
X-2639Y-27015D01*
X-2699Y-26952D01*
X-2699Y-26765D01*
X-2639Y-26702D01*
X-2579Y-26702D01*
X-2519Y-26765D01*
X-2519Y-26952D01*
X-2459Y-27015D01*
X-2399Y-27015D01*
X-2339Y-26952D01*
X-2339Y-26765D01*
X-2399Y-26702D01*
X-2459Y-26702D01*
X-2519Y-26765D01*
X-1469Y-27929D02*
X-469Y-27929D01*
X-469Y-24929D01*
X-1469Y-24929D01*
X-1469Y-27929D01*
X-1969Y-27929D01*
X-1969Y-24929D01*
X-1469Y-24929D01*
X-1469Y-27929D02*
X-1969Y-27429D01*
X-1469Y-27429D02*
X-1969Y-26929D01*
X-1469Y-26929D02*
X-1969Y-26429D01*
X-1469Y-26429D02*
X-1969Y-25929D01*
X-1469Y-25929D02*
X-1969Y-25429D01*
X-1469Y-25429D02*
X-1969Y-24929D01*
X-1268Y-29200D02*
X-968Y-29200D01*
X-908Y-29138D01*
X-908Y-28888D01*
X-968Y-28825D01*
X-1268Y-28825D01*
X-1268Y-28325D02*
X-1268Y-28638D01*
X-1148Y-28638D01*
X-1148Y-28388D01*
X-1088Y-28325D01*
X-968Y-28325D01*
X-908Y-28388D01*
X-908Y-28575D01*
X-968Y-28638D01*
X+820Y-27949D02*
X+1820Y-27949D01*
X+1820Y-24949D01*
X+820Y-24949D01*
X+820Y-27949D01*
X+1820Y-24949D02*
X+2320Y-24949D01*
X+2320Y-27949D01*
X+1820Y-27949D01*
X+1820Y-24949D02*
X+2320Y-25449D01*
X+1820Y-25449D02*
X+2320Y-25949D01*
X+1820Y-25949D02*
X+2320Y-26449D01*
X+1820Y-26449D02*
X+2320Y-26949D01*
X+1820Y-26949D02*
X+2320Y-27449D01*
X+1820Y-27449D02*
X+2320Y-27949D01*
X+1469Y-29213D02*
X+1769Y-29213D01*
X+1829Y-29151D01*
X+1829Y-28901D01*
X+1769Y-28838D01*
X+1469Y-28838D01*
X+1529Y-28651D02*
X+1469Y-28588D01*
X+1469Y-28401D01*
X+1529Y-28338D01*
X+1589Y-28338D01*
X+1649Y-28401D01*
X+1709Y-28338D01*
X+1769Y-28338D01*
X+1829Y-28401D01*
X+1829Y-28588D01*
X+1769Y-28651D01*
X+1649Y-28526D02*
X+1649Y-28401D01*
X+4021Y-25918D02*
X+4021Y-25418D01*
X+8021Y-25418D01*
X+8021Y-27418D01*
X+4021Y-27418D01*
X+4021Y-26918D01*
X+4521Y-26418D02*
X+4511Y-26316D01*
X+4484Y-26222D01*
X+4439Y-26137D01*
X+4380Y-26063D01*
X+4307Y-26002D01*
X+4222Y-25957D01*
X+4126Y-25928D01*
X+4021Y-25918D01*
X+4521Y-26418D02*
X+4511Y-26523D01*
X+4484Y-26618D01*
X+4439Y-26704D01*
X+4380Y-26777D01*
X+4307Y-26836D01*
X+4222Y-26881D01*
X+4126Y-26908D01*
X+4021Y-26918D01*
X+3501Y-26918D02*
X+3801Y-26918D01*
X+3861Y-26856D01*
X+3861Y-26606D01*
X+3801Y-26543D01*
X+3501Y-26543D01*
X+3741Y-26043D02*
X+3741Y-26418D01*
X+3501Y-26168D01*
X+3861Y-26168D01*
X+3090Y-24435D02*
X+3090Y-24935D01*
X+2840Y-26935D02*
X+3340Y-26935D01*
X+3340Y-24935D01*
X+2840Y-24935D01*
X+2840Y-26935D01*
X+3090Y-26935D02*
X+3090Y-27435D01*
X+2404Y-24427D02*
X+2044Y-24427D01*
X+2044Y-24115D01*
X+2104Y-24052D01*
X+2164Y-24052D01*
X+2224Y-24115D01*
X+2224Y-24427D01*
X+2224Y-24115D02*
X+2284Y-24052D01*
X+2404Y-24052D01*
X+2044Y-23552D02*
X+2044Y-23865D01*
X+2164Y-23865D01*
X+2164Y-23615D01*
X+2224Y-23552D01*
X+2344Y-23552D01*
X+2404Y-23615D01*
X+2404Y-23802D01*
X+2344Y-23865D01*
X+8813Y-27470D02*
X+8813Y-26970D01*
X+8563Y-26970D02*
X+9063Y-26970D01*
X+9063Y-24970D01*
X+8563Y-24970D01*
X+8563Y-26970D01*
X+8813Y-24970D02*
X+8813Y-24470D01*
X+9741Y-26509D02*
X+9381Y-26509D01*
X+9381Y-26197D01*
X+9441Y-26134D01*
X+9501Y-26134D01*
X+9561Y-26197D01*
X+9561Y-26509D01*
X+9561Y-26197D02*
X+9621Y-26134D01*
X+9741Y-26134D01*
X+9501Y-25884D02*
X+9381Y-25759D01*
X+9741Y-25759D01*
X-4787Y-27317D02*
X-4787Y-26817D01*
X-5037Y-26817D02*
X-4537Y-26817D01*
X-4537Y-24817D01*
X-5037Y-24817D01*
X-5037Y-26817D01*
X-4787Y-24817D02*
X-4787Y-24317D01*
X-3937Y-25372D02*
X-4297Y-25372D01*
X-4297Y-25060D01*
X-4237Y-24997D01*
X-4177Y-24997D01*
X-4117Y-25060D01*
X-4117Y-25372D01*
X-4117Y-25060D02*
X-4057Y-24997D01*
X-3937Y-24997D01*
X-4237Y-24810D02*
X-4297Y-24747D01*
X-4297Y-24560D01*
X-4237Y-24497D01*
X-4177Y-24497D01*
X-4117Y-24560D01*
X-4117Y-24747D01*
X-4057Y-24810D01*
X-3937Y-24810D01*
X-3937Y-24497D01*
X-5118Y-31466D02*
X-5220Y-31446D01*
X-5314Y-31388D01*
X-5399Y-31297D01*
X-5473Y-31176D01*
X-5534Y-31028D01*
X-5579Y-30858D01*
X-5608Y-30670D01*
X-5618Y-30466D01*
X-5118Y-29466D02*
X-5220Y-29486D01*
X-5314Y-29544D01*
X-5399Y-29635D01*
X-5473Y-29756D01*
X-5534Y-29904D01*
X-5579Y-30074D01*
X-5608Y-30262D01*
X-5618Y-30466D01*
X-5118Y-31466D02*
X-5016Y-31446D01*
X-4922Y-31388D01*
X-4837Y-31297D01*
X-4763Y-31176D01*
X-4702Y-31028D01*
X-4657Y-30858D01*
X-4628Y-30670D01*
X-4618Y-30466D01*
X-5118Y-29466D02*
X-5016Y-29486D01*
X-4922Y-29544D01*
X-4837Y-29635D01*
X-4763Y-29756D01*
X-4702Y-29904D01*
X-4657Y-30074D01*
X-4628Y-30262D01*
X-4618Y-30466D01*
X-5011Y-32166D02*
X-4951Y-32229D01*
X-4951Y-32416D01*
X-5071Y-32541D01*
X-5191Y-32541D01*
X-5311Y-32416D01*
X-5311Y-32229D01*
X-5251Y-32166D01*
X-5251Y-31979D02*
X-5311Y-31916D01*
X-5311Y-31729D01*
X-5251Y-31666D01*
X-5191Y-31666D01*
X-5131Y-31729D01*
X-5131Y-31916D01*
X-5071Y-31979D01*
X-4951Y-31979D01*
X-4951Y-31666D01*
X-2288Y-30473D02*
X-2291Y-30393D01*
X-2317Y-30232D01*
X-2372Y-30071D01*
X-2462Y-29910D01*
X-2598Y-29749D01*
X-2759Y-29624D01*
X-2920Y-29543D01*
X-3081Y-29495D01*
X-3242Y-29474D01*
X-3288Y-29473D01*
X-4288Y-30473D02*
X-4285Y-30393D01*
X-4259Y-30232D01*
X-4204Y-30071D01*
X-4114Y-29910D01*
X-3978Y-29749D01*
X-3817Y-29624D01*
X-3656Y-29543D01*
X-3495Y-29495D01*
X-3334Y-29474D01*
X-3288Y-29473D01*
X-4288Y-30473D02*
X-4285Y-30553D01*
X-4259Y-30714D01*
X-4204Y-30875D01*
X-4114Y-31036D01*
X-3978Y-31197D01*
X-3817Y-31322D01*
X-3656Y-31403D01*
X-3495Y-31451D01*
X-3334Y-31472D01*
X-3288Y-31473D01*
X-2288Y-30473D02*
X-2291Y-30553D01*
X-2317Y-30714D01*
X-2372Y-30875D01*
X-2462Y-31036D01*
X-2598Y-31197D01*
X-2759Y-31322D01*
X-2920Y-31403D01*
X-3081Y-31451D01*
X-3242Y-31472D01*
X-3288Y-31473D01*
X-2788Y-29723D02*
X-2788Y-30223D01*
X-2538Y-29973D02*
X-3038Y-29973D01*
X-3167Y-32173D02*
X-3107Y-32236D01*
X-3107Y-32423D01*
X-3227Y-32548D01*
X-3347Y-32548D01*
X-3467Y-32423D01*
X-3467Y-32236D01*
X-3407Y-32173D01*
X-3467Y-31986D02*
X-3467Y-31673D01*
X-3407Y-31673D01*
X-3107Y-31986D01*
X+377Y-30524D02*
X+374Y-30444D01*
X+348Y-30283D01*
X+293Y-30122D01*
X+203Y-29961D01*
X+67Y-29800D01*
X-94Y-29675D01*
X-255Y-29594D01*
X-416Y-29546D01*
X-577Y-29525D01*
X-623Y-29524D01*
X-1623Y-30524D02*
X-1620Y-30444D01*
X-1594Y-30283D01*
X-1539Y-30122D01*
X-1449Y-29961D01*
X-1313Y-29800D01*
X-1152Y-29675D01*
X-991Y-29594D01*
X-830Y-29546D01*
X-669Y-29525D01*
X-623Y-29524D01*
X-1623Y-30524D02*
X-1620Y-30604D01*
X-1594Y-30765D01*
X-1539Y-30926D01*
X-1449Y-31087D01*
X-1313Y-31248D01*
X-1152Y-31373D01*
X-991Y-31454D01*
X-830Y-31502D01*
X-669Y-31523D01*
X-623Y-31524D01*
X+377Y-30524D02*
X+374Y-30604D01*
X+348Y-30765D01*
X+293Y-30926D01*
X+203Y-31087D01*
X+67Y-31248D01*
X-94Y-31373D01*
X-255Y-31454D01*
X-416Y-31502D01*
X-577Y-31523D01*
X-623Y-31524D01*
X-1373Y-30024D02*
X-873Y-30024D01*
X-1123Y-29774D02*
X-1123Y-30274D01*
X-708Y-32217D02*
X-771Y-32277D01*
X-958Y-32277D01*
X-1083Y-32157D01*
X-1083Y-32037D01*
X-958Y-31917D01*
X-771Y-31917D01*
X-708Y-31977D01*
X-458Y-32097D02*
X-521Y-32037D01*
X-521Y-31977D01*
X-458Y-31917D01*
X-271Y-31917D01*
X-208Y-31977D01*
X-208Y-32037D01*
X-271Y-32097D01*
X-458Y-32097D01*
X-521Y-32157D01*
X-521Y-32217D01*
X-458Y-32277D01*
X-271Y-32277D01*
X-208Y-32217D01*
X-208Y-32157D01*
X-271Y-32097D01*
X+3056Y-30480D02*
X+3053Y-30400D01*
X+3027Y-30239D01*
X+2972Y-30078D01*
X+2882Y-29917D01*
X+2746Y-29756D01*
X+2585Y-29631D01*
X+2424Y-29550D01*
X+2263Y-29502D01*
X+2102Y-29481D01*
X+2056Y-29480D01*
X+1056Y-30480D02*
X+1059Y-30400D01*
X+1085Y-30239D01*
X+1140Y-30078D01*
X+1230Y-29917D01*
X+1366Y-29756D01*
X+1527Y-29631D01*
X+1688Y-29550D01*
X+1849Y-29502D01*
X+2010Y-29481D01*
X+2056Y-29480D01*
X+1056Y-30480D02*
X+1059Y-30560D01*
X+1085Y-30721D01*
X+1140Y-30882D01*
X+1230Y-31043D01*
X+1366Y-31204D01*
X+1527Y-31329D01*
X+1688Y-31410D01*
X+1849Y-31458D01*
X+2010Y-31479D01*
X+2056Y-31480D01*
X+3056Y-30480D02*
X+3053Y-30560D01*
X+3027Y-30721D01*
X+2972Y-30882D01*
X+2882Y-31043D01*
X+2746Y-31204D01*
X+2585Y-31329D01*
X+2424Y-31410D01*
X+2263Y-31458D01*
X+2102Y-31479D01*
X+2056Y-31480D01*
X+2806Y-30980D02*
X+2306Y-30980D01*
X+2556Y-31230D02*
X+2556Y-30730D01*
X+1891Y-32137D02*
X+1828Y-32197D01*
X+1641Y-32197D01*
X+1516Y-32077D01*
X+1516Y-31957D01*
X+1641Y-31837D01*
X+1828Y-31837D01*
X+1891Y-31897D01*
X+2391Y-32077D02*
X+2016Y-32077D01*
X+2266Y-31837D01*
X+2266Y-32197D01*
X+6172Y-31181D02*
X+8172Y-31181D01*
X+8172Y-30181D01*
X+6172Y-30181D01*
X+6172Y-31181D01*
X+6461Y-32184D02*
X+6461Y-31824D01*
X+6836Y-31824D01*
X+6461Y-32004D02*
X+6711Y-32004D01*
X+6961Y-32124D02*
X+7023Y-32184D01*
X+7273Y-32184D01*
X+7336Y-32124D01*
X+7336Y-32064D01*
X+7273Y-32004D01*
X+7023Y-32004D01*
X+6961Y-31944D01*
X+6961Y-31884D01*
X+7023Y-31824D01*
X+7273Y-31824D01*
X+7336Y-31884D01*
X+7461Y-32184D02*
X+7461Y-31824D01*
X+7773Y-31824D01*
X+7836Y-31884D01*
X+7836Y-31944D01*
X+7773Y-32004D01*
X+7461Y-32004D01*
X+7773Y-32004D02*
X+7836Y-32064D01*
X+7836Y-32184D01*
X+9171Y-30735D02*
X+9069Y-30715D01*
X+8975Y-30658D01*
X+8890Y-30566D01*
X+8816Y-30445D01*
X+8755Y-30298D01*
X+8710Y-30128D01*
X+8681Y-29939D01*
X+8671Y-29735D01*
X+9171Y-28735D02*
X+9069Y-28755D01*
X+8975Y-28812D01*
X+8890Y-28904D01*
X+8816Y-29025D01*
X+8755Y-29172D01*
X+8710Y-29342D01*
X+8681Y-29531D01*
X+8671Y-29735D01*
X+9171Y-30735D02*
X+9273Y-30715D01*
X+9367Y-30658D01*
X+9452Y-30566D01*
X+9526Y-30445D01*
X+9587Y-30298D01*
X+9632Y-30128D01*
X+9661Y-29939D01*
X+9671Y-29735D01*
X+9171Y-28735D02*
X+9273Y-28755D01*
X+9367Y-28812D01*
X+9452Y-28904D01*
X+9526Y-29025D01*
X+9587Y-29172D01*
X+9632Y-29342D01*
X+9661Y-29531D01*
X+9671Y-29735D01*
X+8293Y-29505D02*
X+8353Y-29568D01*
X+8353Y-29755D01*
X+8233Y-29880D01*
X+8113Y-29880D01*
X+7993Y-29755D01*
X+7993Y-29568D01*
X+8053Y-29505D01*
X+8053Y-29005D02*
X+7993Y-29068D01*
X+7993Y-29255D01*
X+8053Y-29318D01*
X+8293Y-29318D01*
X+8353Y-29255D01*
X+8353Y-29068D01*
X+8293Y-29005D01*
X+8233Y-29005D01*
X+8173Y-29068D01*
X+8173Y-29318D01*
X+5534Y-30485D02*
X+5531Y-30405D01*
X+5505Y-30244D01*
X+5450Y-30083D01*
X+5360Y-29922D01*
X+5224Y-29761D01*
X+5063Y-29636D01*
X+4902Y-29555D01*
X+4741Y-29507D01*
X+4580Y-29486D01*
X+4534Y-29485D01*
X+3534Y-30485D02*
X+3537Y-30405D01*
X+3563Y-30244D01*
X+3618Y-30083D01*
X+3708Y-29922D01*
X+3844Y-29761D01*
X+4005Y-29636D01*
X+4166Y-29555D01*
X+4327Y-29507D01*
X+4488Y-29486D01*
X+4534Y-29485D01*
X+3534Y-30485D02*
X+3537Y-30565D01*
X+3563Y-30726D01*
X+3618Y-30887D01*
X+3708Y-31048D01*
X+3844Y-31209D01*
X+4005Y-31334D01*
X+4166Y-31415D01*
X+4327Y-31463D01*
X+4488Y-31484D01*
X+4534Y-31485D01*
X+5534Y-30485D02*
X+5531Y-30565D01*
X+5505Y-30726D01*
X+5450Y-30887D01*
X+5360Y-31048D01*
X+5224Y-31209D01*
X+5063Y-31334D01*
X+4902Y-31415D01*
X+4741Y-31463D01*
X+4580Y-31484D01*
X+4534Y-31485D01*
X+3784Y-29985D02*
X+4284Y-29985D01*
X+4034Y-29735D02*
X+4034Y-30235D01*
X+4417Y-32130D02*
X+4354Y-32190D01*
X+4167Y-32190D01*
X+4042Y-32070D01*
X+4042Y-31950D01*
X+4167Y-31830D01*
X+4354Y-31830D01*
X+4417Y-31890D01*
X+4917Y-31830D02*
X+4604Y-31830D01*
X+4604Y-31950D01*
X+4854Y-31950D01*
X+4917Y-32010D01*
X+4917Y-32130D01*
X+4854Y-32190D01*
X+4667Y-32190D01*
X+4604Y-32130D01*
X-7859Y-32676D02*
X+11786Y-32676D01*
X+11786Y+35788D01*
X-7859Y+35788D01*
X-7859Y-32676D01*
X+330Y+32531D02*
X+2330Y+32531D01*
X+2330Y+33531D01*
X+330Y+33531D01*
X+330Y+32531D01*
X+620Y+34182D02*
X+620Y+33822D01*
X+995Y+33822D01*
X+1495Y+33822D02*
X+1120Y+33822D01*
X+1120Y+34182D01*
X+1495Y+34182D01*
X+1120Y+34002D02*
X+1370Y+34002D01*
X+1620Y+33822D02*
X+1620Y+34182D01*
X+1870Y+34182D01*
X+1995Y+34062D01*
X+1995Y+33942D01*
X+1870Y+33822D01*
X+1620Y+33822D01*
X+3027Y+32531D02*
X+5027Y+32531D01*
X+5027Y+33531D01*
X+3027Y+33531D01*
X+3027Y+32531D01*
X+3231Y+33916D02*
X+3168Y+33856D01*
X+2981Y+33856D01*
X+2856Y+33976D01*
X+2856Y+34096D01*
X+2981Y+34216D01*
X+3168Y+34216D01*
X+3231Y+34156D01*
X+3356Y+33856D02*
X+3356Y+34216D01*
X+3731Y+34216D02*
X+3731Y+33856D01*
X+3356Y+34036D02*
X+3731Y+34036D01*
X+3856Y+33856D02*
X+3856Y+34096D01*
X+3981Y+34216D01*
X+4106Y+34216D01*
X+4231Y+34096D01*
X+4231Y+33856D01*
X+3856Y+33976D02*
X+4231Y+33976D01*
X+4356Y+34216D02*
X+4356Y+34036D01*
X+4543Y+33856D01*
X+4731Y+34036D01*
X+4731Y+34216D01*
X+5231Y+33856D02*
X+4856Y+33856D01*
X+4856Y+34216D01*
X+5231Y+34216D01*
X+4856Y+34036D02*
X+5106Y+34036D01*
X-5990Y+11650D02*
X-5490Y+11650D01*
X-5490Y+11400D02*
X-3490Y+11400D01*
X-3490Y+11900D01*
X-5490Y+11900D01*
X-5490Y+11400D01*
X-3490Y+11650D02*
X-2990Y+11650D01*
X-4806Y+12296D02*
X-4806Y+12656D01*
X-4494Y+12656D01*
X-4431Y+12596D01*
X-4431Y+12536D01*
X-4494Y+12476D01*
X-4806Y+12476D01*
X-4494Y+12476D02*
X-4431Y+12416D01*
X-4431Y+12296D01*
X-4181Y+12536D02*
X-4056Y+12656D01*
X-4056Y+12296D01*
X-3806Y+12356D02*
X-3806Y+12596D01*
X-3744Y+12656D01*
X-3494Y+12656D01*
X-3431Y+12596D01*
X-3431Y+12356D01*
X-3494Y+12296D01*
X-3744Y+12296D01*
X-3806Y+12356D01*
X-3806Y+12296D02*
X-3431Y+12656D01*
X-7250Y+12750D02*
X-6250Y+12750D01*
X-6250Y+14750D01*
X-7250Y+14750D01*
X-7250Y+12750D01*
X-6884Y+15065D02*
X-6524Y+15065D01*
X-6524Y+15440D01*
X-6524Y+15940D02*
X-6524Y+15565D01*
X-6884Y+15565D01*
X-6884Y+15940D01*
X-6704Y+15565D02*
X-6704Y+15815D01*
X-6524Y+16065D02*
X-6884Y+16065D01*
X-6884Y+16315D01*
X-6764Y+16440D01*
X-6644Y+16440D01*
X-6524Y+16315D01*
X-6524Y+16065D01*
X-6584Y+17440D02*
X-6524Y+17377D01*
X-6524Y+17190D01*
X-6644Y+17065D01*
X-6764Y+17065D01*
X-6884Y+17190D01*
X-6884Y+17377D01*
X-6824Y+17440D01*
X-6524Y+17565D02*
X-6764Y+17565D01*
X-6884Y+17690D01*
X-6884Y+17815D01*
X-6764Y+17940D01*
X-6524Y+17940D01*
X-6644Y+17565D02*
X-6644Y+17940D01*
X-6884Y+18065D02*
X-6524Y+18065D01*
X-6524Y+18440D01*
X-6884Y+18627D02*
X-6884Y+18877D01*
X-6884Y+18752D02*
X-6524Y+18752D01*
X-6524Y+18627D02*
X-6524Y+18877D01*
X-6524Y+19065D02*
X-6884Y+19065D01*
X-6884Y+19377D01*
X-6824Y+19440D01*
X-6764Y+19440D01*
X-6704Y+19377D01*
X-6644Y+19440D01*
X-6584Y+19440D01*
X-6524Y+19377D01*
X-6524Y+19065D01*
X-6704Y+19065D02*
X-6704Y+19377D01*
X+6389Y+31377D02*
X+5889Y+31377D01*
X+3889Y+31127D02*
X+5889Y+31127D01*
X+5889Y+31627D01*
X+3889Y+31627D01*
X+3889Y+31127D01*
X+3889Y+31377D02*
X+3389Y+31377D01*
X+4389Y+30411D02*
X+4389Y+30771D01*
X+4701Y+30771D01*
X+4764Y+30711D01*
X+4764Y+30651D01*
X+4701Y+30591D01*
X+4389Y+30591D01*
X+4701Y+30591D02*
X+4764Y+30531D01*
X+4764Y+30411D01*
X+5264Y+30651D02*
X+5201Y+30591D01*
X+5014Y+30591D01*
X+4951Y+30651D01*
X+4951Y+30711D01*
X+5014Y+30771D01*
X+5201Y+30771D01*
X+5264Y+30711D01*
X+5264Y+30471D01*
X+5201Y+30411D01*
X+5014Y+30411D01*
X+5620Y+32540D02*
X+7620Y+32540D01*
X+7620Y+33540D01*
X+5620Y+33540D01*
X+5620Y+32540D01*
X+5938Y+33792D02*
X+5938Y+34152D01*
X+6250Y+34152D01*
X+6313Y+34092D01*
X+6313Y+34032D01*
X+6250Y+33972D01*
X+6313Y+33912D01*
X+6313Y+33852D01*
X+6250Y+33792D01*
X+5938Y+33792D01*
X+5938Y+33972D02*
X+6250Y+33972D01*
X+6438Y+33792D02*
X+6438Y+34032D01*
X+6563Y+34152D01*
X+6688Y+34152D01*
X+6813Y+34032D01*
X+6813Y+33792D01*
X+6438Y+33912D02*
X+6813Y+33912D01*
X+6938Y+34152D02*
X+7313Y+34152D01*
X+7125Y+34152D02*
X+7125Y+33792D01*
X-6850Y+34173D02*
X+10787Y+34173D01*
X-6850Y+34173D02*
X-6350Y+33673D01*
X-6850Y+34173D02*
X-6350Y+34673D01*
X+10787Y+34173D02*
X+10287Y+34673D01*
X+10787Y+34173D02*
X+10287Y+33673D01*
X+2093Y+34173D02*
X+2093Y+34182D01*
X+2090Y+34202D01*
X+2083Y+34222D01*
X+2072Y+34242D01*
X+2056Y+34262D01*
X+2036Y+34278D01*
X+2016Y+34288D01*
X+1996Y+34295D01*
X+1976Y+34298D01*
X+1968Y+34298D01*
X+1843Y+34173D02*
X+1843Y+34182D01*
X+1846Y+34202D01*
X+1853Y+34222D01*
X+1864Y+34242D01*
X+1880Y+34262D01*
X+1900Y+34278D01*
X+1920Y+34288D01*
X+1940Y+34295D01*
X+1960Y+34298D01*
X+1968Y+34298D01*
X+1843Y+34173D02*
X+1843Y+34164D01*
X+1846Y+34144D01*
X+1853Y+34124D01*
X+1864Y+34104D01*
X+1880Y+34084D01*
X+1900Y+34068D01*
X+1920Y+34058D01*
X+1940Y+34051D01*
X+1960Y+34048D01*
X+1968Y+34048D01*
X+2093Y+34173D02*
X+2093Y+34164D01*
X+2090Y+34144D01*
X+2083Y+34124D01*
X+2072Y+34104D01*
X+2056Y+34084D01*
X+2036Y+34068D01*
X+2016Y+34058D01*
X+1996Y+34051D01*
X+1976Y+34048D01*
X+1968Y+34048D01*
X-156Y+34573D02*
X-31Y+34693D01*
X-31Y+34333D01*
X+281Y+34693D02*
X+594Y+34693D01*
X+594Y+34633D01*
X+281Y+34333D01*
X+1094Y+34633D02*
X+1031Y+34693D01*
X+844Y+34693D01*
X+781Y+34633D01*
X+781Y+34393D01*
X+844Y+34333D01*
X+1031Y+34333D01*
X+1094Y+34393D01*
X+1094Y+34453D01*
X+1031Y+34513D01*
X+781Y+34513D01*
X+1281Y+34633D02*
X+1344Y+34693D01*
X+1531Y+34693D01*
X+1594Y+34633D01*
X+1594Y+34573D01*
X+1531Y+34513D01*
X+1594Y+34453D01*
X+1594Y+34393D01*
X+1531Y+34333D01*
X+1344Y+34333D01*
X+1281Y+34393D01*
X+1406Y+34513D02*
X+1531Y+34513D01*
X+1906Y+34393D02*
X+1969Y+34393D01*
X+1969Y+34333D01*
X+1906Y+34333D01*
X+1906Y+34393D01*
X+2281Y+34693D02*
X+2594Y+34693D01*
X+2594Y+34633D01*
X+2281Y+34333D01*
X+2844Y+34513D02*
X+2781Y+34573D01*
X+2781Y+34633D01*
X+2844Y+34693D01*
X+3031Y+34693D01*
X+3094Y+34633D01*
X+3094Y+34573D01*
X+3031Y+34513D01*
X+2844Y+34513D01*
X+2781Y+34453D01*
X+2781Y+34393D01*
X+2844Y+34333D01*
X+3031Y+34333D01*
X+3094Y+34393D01*
X+3094Y+34453D01*
X+3031Y+34513D01*
X+3281Y+34693D02*
X+3281Y+34393D01*
X+3344Y+34333D01*
X+3531Y+34333D01*
X+3594Y+34393D01*
X+3219Y+34573D02*
X+3531Y+34573D01*
X+4094Y+34333D02*
X+4094Y+34513D01*
X+4031Y+34573D01*
X+3781Y+34573D01*
X+3719Y+34513D01*
X+3719Y+34693D02*
X+3719Y+34333D01*
X-6850Y+34173D02*
X-6850Y-31732D01*
X-6850Y+34173D02*
X-7350Y+33673D01*
X-6850Y+34173D02*
X-6350Y+33673D01*
X-6850Y-31732D02*
X-6350Y-31232D01*
X-6850Y-31732D02*
X-7350Y-31232D01*
X-6725Y+1220D02*
X-6725Y+1229D01*
X-6728Y+1249D01*
X-6735Y+1269D01*
X-6746Y+1289D01*
X-6762Y+1309D01*
X-6782Y+1325D01*
X-6802Y+1335D01*
X-6822Y+1342D01*
X-6842Y+1345D01*
X-6850Y+1345D01*
X-6975Y+1220D02*
X-6975Y+1229D01*
X-6972Y+1249D01*
X-6965Y+1269D01*
X-6954Y+1289D01*
X-6938Y+1309D01*
X-6918Y+1325D01*
X-6898Y+1335D01*
X-6878Y+1342D01*
X-6858Y+1345D01*
X-6850Y+1345D01*
X-6975Y+1220D02*
X-6975Y+1211D01*
X-6972Y+1191D01*
X-6965Y+1171D01*
X-6954Y+1151D01*
X-6938Y+1131D01*
X-6918Y+1115D01*
X-6898Y+1105D01*
X-6878Y+1098D01*
X-6858Y+1095D01*
X-6850Y+1095D01*
X-6725Y+1220D02*
X-6725Y+1211D01*
X-6728Y+1191D01*
X-6735Y+1171D01*
X-6746Y+1151D01*
X-6762Y+1131D01*
X-6782Y+1115D01*
X-6802Y+1105D01*
X-6822Y+1098D01*
X-6842Y+1095D01*
X-6850Y+1095D01*
X-6390Y+3095D02*
X-6330Y+3158D01*
X-6330Y+3345D01*
X-6390Y+3408D01*
X-6630Y+3408D01*
X-6690Y+3345D01*
X-6690Y+3158D01*
X-6630Y+3095D01*
X-6570Y+3095D01*
X-6510Y+3158D01*
X-6510Y+3408D01*
X-6330Y+2595D02*
X-6330Y+2908D01*
X-6450Y+2908D01*
X-6450Y+2658D01*
X-6510Y+2595D01*
X-6630Y+2595D01*
X-6690Y+2658D01*
X-6690Y+2845D01*
X-6630Y+2908D01*
X-6450Y+2095D02*
X-6510Y+2158D01*
X-6510Y+2345D01*
X-6450Y+2408D01*
X-6390Y+2408D01*
X-6330Y+2345D01*
X-6330Y+2158D01*
X-6390Y+2095D01*
X-6630Y+2095D01*
X-6690Y+2158D01*
X-6690Y+2345D01*
X-6630Y+1970D02*
X-6390Y+1970D01*
X-6330Y+1908D01*
X-6330Y+1658D01*
X-6390Y+1595D01*
X-6630Y+1595D01*
X-6690Y+1658D01*
X-6690Y+1908D01*
X-6630Y+1970D01*
X-6690Y+1970D02*
X-6330Y+1595D01*
X-6630Y+1283D02*
X-6630Y+1220D01*
X-6690Y+1220D01*
X-6690Y+1283D01*
X-6630Y+1283D01*
X-6330Y+595D02*
X-6330Y+908D01*
X-6450Y+908D01*
X-6450Y+658D01*
X-6510Y+595D01*
X-6630Y+595D01*
X-6690Y+658D01*
X-6690Y+845D01*
X-6630Y+908D01*
X-6330Y+95D02*
X-6330Y+408D01*
X-6450Y+408D01*
X-6450Y+158D01*
X-6510Y+95D01*
X-6630Y+95D01*
X-6690Y+158D01*
X-6690Y+345D01*
X-6630Y+408D01*
X-6330Y-92D02*
X-6630Y-92D01*
X-6690Y-155D01*
X-6690Y-342D01*
X-6630Y-405D01*
X-6450Y-30D02*
X-6450Y-342D01*
X-6690Y-905D02*
X-6510Y-905D01*
X-6450Y-842D01*
X-6450Y-592D01*
X-6510Y-530D01*
X-6330Y-530D02*
X-6690Y-530D01*
X+10787Y-31732D02*
X-6850Y-31732D01*
X+10787Y-31732D02*
X+10287Y-31232D01*
X+10787Y-31732D02*
X+10287Y-32232D01*
X-6850Y-31732D02*
X-6350Y-32232D01*
X-6850Y-31732D02*
X-6350Y-31232D01*
X+2093Y-31732D02*
X+2093Y-31723D01*
X+2090Y-31703D01*
X+2083Y-31683D01*
X+2072Y-31663D01*
X+2056Y-31643D01*
X+2036Y-31627D01*
X+2016Y-31617D01*
X+1996Y-31610D01*
X+1976Y-31607D01*
X+1968Y-31607D01*
X+1843Y-31732D02*
X+1843Y-31723D01*
X+1846Y-31703D01*
X+1853Y-31683D01*
X+1864Y-31663D01*
X+1880Y-31643D01*
X+1900Y-31627D01*
X+1920Y-31617D01*
X+1940Y-31610D01*
X+1960Y-31607D01*
X+1968Y-31607D01*
X+1843Y-31732D02*
X+1843Y-31741D01*
X+1846Y-31761D01*
X+1853Y-31781D01*
X+1864Y-31801D01*
X+1880Y-31821D01*
X+1900Y-31837D01*
X+1920Y-31847D01*
X+1940Y-31854D01*
X+1960Y-31857D01*
X+1968Y-31857D01*
X+2093Y-31732D02*
X+2093Y-31741D01*
X+2090Y-31761D01*
X+2083Y-31781D01*
X+2072Y-31801D01*
X+2056Y-31821D01*
X+2036Y-31837D01*
X+2016Y-31847D01*
X+1996Y-31854D01*
X+1976Y-31857D01*
X+1968Y-31857D01*
X-156Y-31332D02*
X-31Y-31212D01*
X-31Y-31572D01*
X+281Y-31212D02*
X+594Y-31212D01*
X+594Y-31272D01*
X+281Y-31572D01*
X+1094Y-31272D02*
X+1031Y-31212D01*
X+844Y-31212D01*
X+781Y-31272D01*
X+781Y-31512D01*
X+844Y-31572D01*
X+1031Y-31572D01*
X+1094Y-31512D01*
X+1094Y-31452D01*
X+1031Y-31392D01*
X+781Y-31392D01*
X+1281Y-31272D02*
X+1344Y-31212D01*
X+1531Y-31212D01*
X+1594Y-31272D01*
X+1594Y-31332D01*
X+1531Y-31392D01*
X+1594Y-31452D01*
X+1594Y-31512D01*
X+1531Y-31572D01*
X+1344Y-31572D01*
X+1281Y-31512D01*
X+1406Y-31392D02*
X+1531Y-31392D01*
X+1906Y-31512D02*
X+1969Y-31512D01*
X+1969Y-31572D01*
X+1906Y-31572D01*
X+1906Y-31512D01*
X+2281Y-31212D02*
X+2594Y-31212D01*
X+2594Y-31272D01*
X+2281Y-31572D01*
X+2844Y-31392D02*
X+2781Y-31332D01*
X+2781Y-31272D01*
X+2844Y-31212D01*
X+3031Y-31212D01*
X+3094Y-31272D01*
X+3094Y-31332D01*
X+3031Y-31392D01*
X+2844Y-31392D01*
X+2781Y-31452D01*
X+2781Y-31512D01*
X+2844Y-31572D01*
X+3031Y-31572D01*
X+3094Y-31512D01*
X+3094Y-31452D01*
X+3031Y-31392D01*
X+3281Y-31212D02*
X+3281Y-31512D01*
X+3344Y-31572D01*
X+3531Y-31572D01*
X+3594Y-31512D01*
X+3219Y-31332D02*
X+3531Y-31332D01*
X+4094Y-31572D02*
X+4094Y-31392D01*
X+4031Y-31332D01*
X+3781Y-31332D01*
X+3719Y-31392D01*
X+3719Y-31212D02*
X+3719Y-31572D01*
X+10787Y-31732D02*
X+10787Y+34173D01*
X+10787Y-31732D02*
X+11287Y-31232D01*
X+10787Y-31732D02*
X+10287Y-31232D01*
X+10787Y+34173D02*
X+10287Y+33673D01*
X+10787Y+34173D02*
X+11287Y+33673D01*
X+10912Y+1220D02*
X+10912Y+1229D01*
X+10909Y+1249D01*
X+10902Y+1269D01*
X+10891Y+1289D01*
X+10875Y+1309D01*
X+10855Y+1325D01*
X+10835Y+1335D01*
X+10815Y+1342D01*
X+10795Y+1345D01*
X+10787Y+1345D01*
X+10662Y+1220D02*
X+10662Y+1229D01*
X+10665Y+1249D01*
X+10672Y+1269D01*
X+10683Y+1289D01*
X+10699Y+1309D01*
X+10719Y+1325D01*
X+10739Y+1335D01*
X+10759Y+1342D01*
X+10779Y+1345D01*
X+10787Y+1345D01*
X+10662Y+1220D02*
X+10662Y+1211D01*
X+10665Y+1191D01*
X+10672Y+1171D01*
X+10683Y+1151D01*
X+10699Y+1131D01*
X+10719Y+1115D01*
X+10739Y+1105D01*
X+10759Y+1098D01*
X+10779Y+1095D01*
X+10787Y+1095D01*
X+10912Y+1220D02*
X+10912Y+1211D01*
X+10909Y+1191D01*
X+10902Y+1171D01*
X+10891Y+1151D01*
X+10875Y+1131D01*
X+10855Y+1115D01*
X+10835Y+1105D01*
X+10815Y+1098D01*
X+10795Y+1095D01*
X+10787Y+1095D01*
X+10327Y-654D02*
X+10267Y-717D01*
X+10267Y-904D01*
X+10327Y-967D01*
X+10567Y-967D01*
X+10627Y-904D01*
X+10627Y-717D01*
X+10567Y-654D01*
X+10507Y-654D01*
X+10447Y-717D01*
X+10447Y-967D01*
X+10267Y-154D02*
X+10267Y-467D01*
X+10387Y-467D01*
X+10387Y-217D01*
X+10447Y-154D01*
X+10567Y-154D01*
X+10627Y-217D01*
X+10627Y-404D01*
X+10567Y-467D01*
X+10387Y+346D02*
X+10447Y+283D01*
X+10447Y+96D01*
X+10387Y+33D01*
X+10327Y+33D01*
X+10267Y+96D01*
X+10267Y+283D01*
X+10327Y+346D01*
X+10567Y+346D01*
X+10627Y+283D01*
X+10627Y+96D01*
X+10567Y+471D02*
X+10327Y+471D01*
X+10267Y+533D01*
X+10267Y+783D01*
X+10327Y+846D01*
X+10567Y+846D01*
X+10627Y+783D01*
X+10627Y+533D01*
X+10567Y+471D01*
X+10627Y+471D02*
X+10267Y+846D01*
X+10567Y+1158D02*
X+10567Y+1221D01*
X+10627Y+1221D01*
X+10627Y+1158D01*
X+10567Y+1158D01*
X+10267Y+1846D02*
X+10267Y+1533D01*
X+10387Y+1533D01*
X+10387Y+1783D01*
X+10447Y+1846D01*
X+10567Y+1846D01*
X+10627Y+1783D01*
X+10627Y+1596D01*
X+10567Y+1533D01*
X+10267Y+2346D02*
X+10267Y+2033D01*
X+10387Y+2033D01*
X+10387Y+2283D01*
X+10447Y+2346D01*
X+10567Y+2346D01*
X+10627Y+2283D01*
X+10627Y+2096D01*
X+10567Y+2033D01*
X+10267Y+2533D02*
X+10567Y+2533D01*
X+10627Y+2596D01*
X+10627Y+2783D01*
X+10567Y+2846D01*
X+10387Y+2471D02*
X+10387Y+2783D01*
X+10627Y+3346D02*
X+10447Y+3346D01*
X+10387Y+3283D01*
X+10387Y+3033D01*
X+10447Y+2971D01*
X+10267Y+2971D02*
X+10627Y+2971D01*
M00*
