G04 PROTEUS RS274X GERBER FILE*
%FSLAX24Y24*%
%MOIN*%
%ADD17C,0.0200*%
%ADD18C,0.0100*%
%ADD19C,0.0150*%
%ADD16C,0.0080*%
%ADD70C,0.0250*%
%ADD10R,0.0800X0.0800*%
%ADD11R,0.0600X0.0600*%
%ADD12C,0.0700*%
%ADD13C,0.0800*%
%ADD14C,0.0600*%
%ADD15C,0.1500*%
G54D17*
X-5157Y-18484D02*
X-5157Y-17124D01*
X-5141Y-17109D01*
G54D18*
X-5157Y-18644D02*
X-5157Y-18484D01*
G54D19*
X-1188Y-18279D02*
X-1241Y-18529D01*
G54D18*
X-2171Y-21262D02*
X-2188Y-21279D01*
X-2171Y-21262D02*
X-2171Y-21326D01*
G54D17*
X+1320Y-26449D02*
X+1132Y-26636D01*
X+988Y-26636D01*
G54D18*
X-307Y-22699D02*
X-314Y-22707D01*
X-314Y-23841D01*
G54D17*
X+3090Y-23935D02*
X+1738Y-23935D01*
X+1320Y-24353D01*
X+1320Y-25449D01*
X+3090Y-23935D02*
X+4488Y-23935D01*
X+4743Y-23680D01*
X+4743Y-22504D01*
X+3090Y-27935D02*
X+2474Y-27935D01*
X+1988Y-27449D01*
X+1320Y-27449D01*
X+5034Y-30485D02*
X+5738Y-30485D01*
X+5935Y-30681D01*
X+6672Y-30681D01*
X-5481Y-25316D02*
X-4944Y-25316D01*
X-3831Y-26429D01*
X-969Y-26429D01*
X-5481Y-25316D02*
X-5481Y-24087D01*
X-5211Y-23817D01*
X-4787Y-23817D01*
G54D16*
X-3288Y-29973D02*
X-3688Y-30039D01*
G54D18*
X-3261Y-30052D02*
X-3261Y-29946D01*
X-3288Y-29973D02*
X-3261Y-30052D01*
X-3688Y-30039D02*
X-3675Y-30052D01*
X-3261Y-30052D01*
X-3288Y-29973D02*
X-3261Y-29946D01*
X-3261Y-29904D01*
G54D17*
X-3188Y-18279D02*
X-3614Y-18279D01*
X-4251Y-18916D01*
X-4251Y-21738D01*
X-5157Y-22644D01*
G54D19*
X-3188Y-18279D02*
X-3188Y-19046D01*
X-2858Y-19376D01*
X-2741Y-19376D01*
G54D17*
X+8813Y-23970D02*
X+7469Y-23970D01*
X+6521Y-24918D01*
X+5743Y-22504D02*
X+6644Y-21603D01*
X+8912Y-21603D01*
X-3314Y-23841D02*
X-3314Y-24990D01*
X-3307Y-24998D01*
X+6521Y-27918D02*
X+7521Y-27918D01*
X-891Y+15616D02*
X-1191Y+15627D01*
X-3244Y+15627D01*
X-4044Y+16427D01*
X-4044Y+19740D01*
X-3288Y-30973D02*
X-3688Y-30966D01*
X-5118Y-30966D02*
X-3688Y-30966D01*
G54D18*
X-2721Y-25926D02*
X-2761Y-25886D01*
X-2721Y-25926D02*
X-2851Y-25926D01*
X-2981Y-25926D01*
G54D17*
X-3307Y-24998D02*
X-3261Y-25044D01*
X-3261Y-25636D01*
X-2981Y-25916D01*
X-2791Y-25916D01*
X-2761Y-25886D01*
X-3314Y-23841D02*
X-4011Y-23144D01*
X-4011Y-22102D01*
X-3188Y-21279D01*
G54D18*
X-891Y+15616D02*
X-1191Y+15616D01*
G54D17*
X-891Y+6616D02*
X-1511Y+5996D01*
X-1511Y+3527D01*
X-11Y+2027D01*
X-11Y-2883D01*
X-970Y-3842D01*
X-1220Y-3842D01*
G54D19*
X+6478Y+24117D02*
X+6488Y+24127D01*
X+7088Y+24127D01*
X+7438Y+23777D01*
X+7438Y+20527D01*
G54D17*
X+988Y-26636D02*
X+866Y-26636D01*
X+4015Y+24448D02*
X+4598Y+24448D01*
X+4648Y+24448D01*
X+4685Y+24448D01*
X+4838Y+24448D01*
X+4881Y+24448D01*
G54D19*
X+4598Y+24448D02*
X+4212Y+24063D01*
X+4212Y+18093D01*
X+4688Y+17616D01*
X+5108Y+17616D01*
G54D17*
X+4960Y+24448D02*
X+5100Y+24448D01*
X+6073Y+24448D02*
X+6338Y+24448D01*
X+4960Y+24448D02*
X+4881Y+24448D01*
X+6338Y+24448D02*
X+7526Y+24448D01*
X+8243Y+23732D01*
X+8593Y+23677D01*
X+5100Y+24448D02*
X+6062Y+24448D01*
X+6073Y+24448D01*
G54D18*
X+3719Y+23283D02*
X+3738Y+23087D01*
G54D19*
X+6478Y+24117D02*
X+6220Y+23859D01*
X+6220Y+19099D01*
X+5738Y+18616D01*
X+5108Y+18616D01*
X-1496Y+14127D02*
X+38Y+14127D01*
X+1527Y+15616D01*
X+5108Y+15616D01*
X-1496Y+14127D02*
X-1968Y+13655D01*
X-1968Y+13149D01*
G54D17*
X-4044Y+23740D02*
X-5118Y+22666D01*
X-5118Y+10863D01*
X-3871Y+9616D01*
X-891Y+9616D01*
X-1188Y-18279D02*
X-1188Y-17459D01*
X-1141Y-17109D01*
X-4787Y-27817D02*
X-4437Y-27778D01*
X-2244Y-27778D01*
X-1889Y-27424D01*
X-1269Y-27424D01*
X-969Y-27429D01*
G54D70*
X-3307Y-28998D02*
X-2957Y-28998D01*
X-1732Y-28998D01*
X-984Y-28250D01*
X-984Y-27729D01*
X-969Y-27429D01*
G54D17*
X-123Y-30524D02*
X+276Y-30534D01*
X+590Y-30534D01*
G54D18*
X+8738Y-28037D02*
X+8738Y-27989D01*
X+8738Y-28037D02*
X+8813Y-27970D01*
X+8738Y-28044D02*
X+8813Y-27970D01*
X+8738Y-28044D02*
X+8738Y-28037D01*
G54D17*
X+8912Y-21603D02*
X+8912Y-20770D01*
X+8740Y-20598D01*
X+8740Y-20109D01*
X+8712Y-19859D01*
G54D19*
X-188Y-21279D02*
X+55Y-21029D01*
X+314Y-20770D01*
X+4872Y-20770D01*
X+5238Y-21136D01*
X+5238Y-23386D01*
X+5521Y-23669D01*
X+5521Y-24918D01*
X-2188Y-21279D02*
X-2171Y-21029D01*
X-2171Y-20691D01*
X-1935Y-20455D01*
X-1241Y-20455D01*
X-1241Y-18529D01*
G54D18*
X+8700Y-28081D02*
X+8700Y-28044D01*
X+8738Y-28044D01*
G54D17*
X+8700Y-28081D02*
X+8738Y-28044D01*
X-5157Y-18484D02*
X-4643Y-18484D01*
X-3937Y-17778D01*
X-2690Y-17778D01*
X-2188Y-18279D01*
X+2556Y-30480D02*
X+2560Y-30485D01*
X+4034Y-30485D01*
X+866Y-26636D02*
X+787Y-26557D01*
X+2556Y-30480D02*
X+1794Y-31242D01*
X+944Y-31242D01*
X+590Y-30888D01*
X+590Y-30534D01*
X-307Y-22699D02*
X-307Y-22738D01*
X+238Y-22738D01*
X+478Y-22499D01*
X+1802Y-22499D01*
X-1188Y-21279D02*
X-1188Y-21550D01*
X-866Y-21872D01*
X+454Y-21872D01*
X+988Y-21339D01*
X+1802Y-21339D01*
X+1802Y-21499D01*
G54D19*
X+7952Y-28487D02*
X+8070Y-28487D01*
X+8188Y-28487D01*
X+8425Y-28487D01*
X+8591Y-28320D01*
X+8813Y-27970D01*
X+5521Y-27918D02*
X+5744Y-28168D01*
X+6062Y-28487D01*
X+7952Y-28487D01*
G54D17*
X-1220Y-4842D02*
X-940Y-4842D01*
X+2712Y-8495D01*
X+2712Y-16859D01*
X-891Y+5616D02*
X+2847Y+5616D01*
X+3740Y+4724D01*
X+3740Y-16859D01*
X+3712Y-16859D01*
X+8813Y-23970D02*
X+10236Y-22547D01*
X+10236Y+6829D01*
X+9448Y+7616D01*
X+5108Y+7616D01*
X-6750Y+14250D02*
X-6750Y+15300D01*
X-6280Y+15770D01*
X-5511Y+15770D01*
X-2490Y+11650D02*
X-1191Y+11650D01*
X-891Y+11616D01*
X+3090Y-27935D02*
X+3090Y-28541D01*
X+5034Y-30485D01*
X-3688Y-30039D02*
X-5481Y-28246D01*
X-5481Y-25316D01*
X-188Y-18279D02*
X+118Y-17972D01*
X+118Y-16675D01*
X-451Y-16106D01*
X-5491Y-16106D01*
X-6031Y-16646D01*
X-6031Y-29612D01*
X-5678Y-29966D01*
X-5118Y-29966D01*
X+590Y-30534D02*
X+590Y-30258D01*
X+275Y-29943D01*
X+275Y-25573D01*
X-411Y-24886D01*
X-1761Y-24886D01*
X-2761Y-25886D01*
G54D19*
X-1220Y-2842D02*
X-5431Y-2842D01*
X-6521Y-3932D01*
X-6521Y-29932D01*
X-6001Y-30452D01*
X-4101Y-30452D01*
X-3688Y-30039D01*
G54D17*
X-787Y+32759D02*
X-841Y+33035D01*
X+9212Y+28425D02*
X+9212Y+28582D01*
X+9212Y+30000D01*
X+7834Y+31377D01*
X+6889Y+31377D01*
X+9212Y+28425D02*
X+9212Y+22301D01*
X+7438Y+20527D01*
X+5719Y+23283D02*
X+5719Y+24105D01*
X+6062Y+24448D01*
G54D19*
X+5108Y+5616D02*
X+4808Y+5706D01*
X+4478Y+6036D01*
X+4478Y+12897D01*
X+4690Y+13110D01*
X+5850Y+13110D01*
X+6732Y+13991D01*
X+6732Y+23226D01*
X+6719Y+23283D01*
G54D17*
X-4044Y+23740D02*
X-4320Y+23740D01*
X-4241Y+24090D01*
X-4241Y+32635D01*
X-4296Y+33035D01*
X-4346Y+33035D01*
X-3346Y+33035D02*
X-2084Y+33035D01*
X-1926Y+33035D01*
X-2084Y+33035D02*
X-1841Y+33035D01*
X+6889Y+31377D02*
X+6338Y+31929D01*
X+5118Y+31929D01*
X+4527Y+32519D01*
X+4527Y+33031D01*
X+3740Y+24448D02*
X+4015Y+24448D01*
G54D19*
X-841Y+32795D02*
X-841Y+33035D01*
G54D18*
X-841Y+33095D02*
X-841Y+33035D01*
G54D17*
X-841Y+33095D02*
X-818Y+33118D01*
X+2889Y+31377D02*
X+2539Y+31672D01*
X+1830Y+32381D01*
X+1830Y+33031D01*
G54D19*
X-891Y+15616D02*
X+157Y+15616D01*
X+3228Y+18687D01*
X+3228Y+23976D01*
G54D17*
X+2755Y+25433D02*
X+3740Y+24448D01*
X+2755Y+25433D02*
X+826Y+27362D01*
X+826Y+32991D01*
X+830Y+33031D01*
X-5511Y+15770D02*
X-5511Y+15550D01*
X-1220Y-1842D02*
X-5511Y+2448D01*
X-5511Y+15550D01*
X+6120Y+33040D02*
X+6130Y+33440D01*
X+6130Y+33480D01*
X+5720Y+33890D01*
X+3860Y+33890D01*
X+3550Y+33580D01*
X+3550Y+33431D01*
X+3527Y+33031D01*
X+830Y+33031D02*
X+826Y+33431D01*
X+826Y+34046D01*
X+1020Y+34240D01*
X+6350Y+34240D01*
X+7120Y+33470D01*
X+7120Y+33040D01*
X-841Y+33095D02*
X-841Y+33428D01*
X+330Y+34600D01*
X+6970Y+34600D01*
X+10157Y+31412D01*
X+10157Y+20446D01*
X+9387Y+19677D01*
X+8593Y+19677D01*
X+7120Y+33040D02*
X+7150Y+33010D01*
X+7690Y+33010D01*
X+9670Y+31030D01*
X+9670Y+21950D01*
X+8000Y+20280D01*
X+8000Y+19260D01*
X+8230Y+19030D01*
X+9940Y+19030D01*
X+10570Y+19660D01*
X+10570Y+31770D01*
X+7370Y+34970D01*
X-3961Y+34970D01*
X-5511Y+33420D01*
X-5511Y+15770D01*
X+9171Y-30235D02*
X+9113Y-30293D01*
X+8858Y-30293D01*
X+8095Y-29530D01*
X+5181Y-29530D01*
X+3858Y-28206D01*
X+3858Y-26811D01*
X+3503Y-26456D01*
X+1620Y-26456D01*
X+1320Y-26449D01*
G54D19*
X+9171Y-29235D02*
X+9120Y-29220D01*
X+8890Y-28990D01*
X+5210Y-28990D01*
X+5000Y-28780D01*
X+5000Y-26583D01*
X+6023Y-25560D01*
X+5743Y-22504D02*
X+6023Y-22783D01*
X+6023Y-25560D01*
X+6023Y-27420D01*
X+6521Y-27918D01*
G54D17*
X+7672Y-30681D02*
X+7730Y-30750D01*
X+7970Y-30990D01*
X+9240Y-30990D01*
X+9930Y-30300D01*
X+9930Y-28970D01*
X+9163Y-28203D01*
X+8813Y-27970D01*
X-1123Y-30524D02*
X-1643Y-30524D01*
X-1811Y-30692D01*
X-1811Y-31242D01*
X-1361Y-31692D01*
X+9437Y-31692D01*
X+10780Y-30350D01*
X+10780Y+15035D01*
X+7438Y+18377D01*
X+7438Y+20527D01*
X+9770Y-27839D02*
X+9828Y-27896D01*
X+10300Y-28368D01*
X+10300Y-28858D01*
X+10300Y-29400D01*
X+4034Y-30485D02*
X+4927Y-31377D01*
X+9312Y-31377D01*
X+10300Y-30390D01*
X+10300Y-29400D01*
X+9770Y-27839D02*
X+9151Y-27220D01*
X+7970Y-27220D01*
X+7521Y-27668D01*
X+7521Y-27918D01*
X+787Y-26557D02*
X+590Y-26361D01*
X+590Y-25337D01*
X-298Y-24448D01*
X-1141Y-24448D01*
X-2890Y-22699D01*
X-3307Y-22699D01*
G54D19*
X+5108Y+5616D02*
X+5408Y+5447D01*
X+6220Y+4635D01*
X+6220Y-18674D01*
X+5721Y-19173D01*
X+1961Y-19173D01*
X+1712Y-19422D01*
X+1712Y-19859D01*
G54D17*
X+3719Y+23283D02*
X+3738Y+22983D01*
X+3738Y+18541D01*
X-186Y+14616D01*
X-891Y+14616D01*
G54D19*
X+3228Y+23976D02*
X+3700Y+24448D01*
X+3740Y+24448D01*
X-841Y+31668D02*
X-841Y+27244D01*
X-841Y+27107D01*
X-472Y+26738D01*
X-449Y+26715D01*
X-841Y+31668D02*
X-841Y+32795D01*
X-891Y+17616D02*
X-829Y+17679D01*
X-76Y+17679D01*
X+196Y+17952D01*
X+196Y+26068D01*
X-449Y+26715D01*
G54D17*
X-1968Y+13149D02*
X-3352Y+13149D01*
X-4685Y+14482D01*
X-4685Y+21141D01*
X-3346Y+22480D01*
X-3346Y+33035D01*
G54D19*
X-3288Y-30973D02*
X-2888Y-30709D01*
X-393Y-28214D01*
X-393Y-26062D01*
X-530Y-25926D01*
X-2721Y-25926D01*
G54D17*
X-1123Y-30524D02*
X-78Y-29479D01*
X-78Y-25819D01*
X-468Y-25429D01*
X-969Y-25429D01*
X+787Y-26557D02*
X+787Y-29712D01*
X+1556Y-30480D01*
X-6490Y+11650D02*
X-6732Y+11892D01*
X-6732Y+12850D01*
X-6750Y+13250D01*
X-5118Y-30966D02*
X-5468Y-31092D01*
X-6081Y-31092D01*
X-7100Y-30074D01*
X-7100Y-3620D01*
X-5321Y-1842D01*
X-1220Y-1842D01*
G54D19*
X+4719Y+23283D02*
X+4719Y+21658D01*
X+4520Y+21459D01*
X+4520Y+18310D01*
X+4692Y+18137D01*
X+5659Y+18137D01*
X+5928Y+17868D01*
X+5928Y+15448D01*
X+5607Y+15127D01*
X+1741Y+15127D01*
X+236Y+13622D01*
X-876Y+13622D01*
X-891Y+13616D01*
X-1241Y-20455D02*
X+8074Y-20455D01*
X+8230Y-20300D01*
X+8230Y-19440D01*
X+8313Y-19356D01*
X+9255Y-19356D01*
X+9685Y-19786D01*
X+9685Y-21831D01*
X+8912Y-22603D01*
X-1968Y+13149D02*
X-1968Y+12619D01*
X-1456Y+12107D01*
X+3640Y+12107D01*
X+4228Y+11519D01*
X+4228Y-17723D01*
X+3110Y-18841D01*
X-568Y-18841D01*
X-701Y-18708D01*
X-701Y-17726D01*
X-461Y-17486D01*
X-461Y-16806D01*
X-771Y-16496D01*
X-1561Y-16496D01*
X-1711Y-16646D01*
X-1711Y-19016D01*
X-2071Y-19376D01*
X-2741Y-19376D01*
X-188Y-21279D02*
X-188Y-20971D01*
X-428Y-20731D01*
X-1591Y-20731D01*
X-1692Y-20832D01*
X-1692Y-21672D01*
X-1860Y-21840D01*
X-2620Y-21840D01*
X-2690Y-21770D01*
X-2690Y-19428D01*
X-2741Y-19376D01*
G54D10*
X-3346Y+33035D03*
X-4346Y+33035D03*
X-1841Y+33035D03*
X-841Y+33035D03*
G54D11*
X+6719Y+23283D03*
X+5719Y+23283D03*
X+4719Y+23283D03*
X+3719Y+23283D03*
X+2719Y+23283D03*
X+1719Y+23283D03*
X+719Y+23283D03*
X-280Y+23283D03*
X-1280Y+23283D03*
X-2280Y+23283D03*
G54D12*
X-4044Y+19740D03*
X-4044Y+23740D03*
X+8593Y+23677D03*
X+8593Y+19677D03*
G54D11*
X-891Y+20616D03*
X-891Y+19616D03*
X-891Y+18616D03*
X-891Y+17616D03*
X-891Y+16616D03*
X-891Y+15616D03*
X-891Y+14616D03*
X-891Y+13616D03*
X-891Y+12616D03*
X-891Y+11616D03*
X-891Y+10616D03*
X-891Y+9616D03*
X-891Y+8616D03*
X-891Y+7616D03*
X-891Y+6616D03*
X-891Y+5616D03*
X-891Y+4616D03*
X+5108Y+4616D03*
X+5108Y+5616D03*
X+5108Y+6616D03*
X+5108Y+7616D03*
X+5108Y+8616D03*
X+5108Y+9616D03*
X+5108Y+10616D03*
X+5108Y+11616D03*
X+5108Y+12616D03*
X+5108Y+13616D03*
X+5108Y+14616D03*
X+5108Y+15616D03*
X+5108Y+16616D03*
X+5108Y+17616D03*
X+5108Y+18616D03*
X+5108Y+19616D03*
X+5108Y+20616D03*
X-1220Y-1842D03*
X-1220Y-2842D03*
X-1220Y-3842D03*
X-1220Y-4842D03*
X-1220Y-5842D03*
X-1220Y-6842D03*
X-1220Y-7842D03*
X-1220Y-8842D03*
X-1220Y-9842D03*
X-1220Y-10842D03*
X-1220Y-11842D03*
X+5078Y-11842D03*
X+5078Y-10842D03*
X+5078Y-9842D03*
X+5078Y-8842D03*
X+5078Y-7842D03*
X+5078Y-6842D03*
X+5078Y-5842D03*
X+5078Y-4842D03*
X+5078Y-3842D03*
X+5078Y-2842D03*
X+5078Y-1842D03*
X+1712Y-19859D03*
X+2712Y-19859D03*
X+3712Y-19859D03*
X+4712Y-19859D03*
X+5712Y-19859D03*
X+6712Y-19859D03*
X+7712Y-19859D03*
X+8712Y-19859D03*
X+8712Y-16859D03*
X+7712Y-16859D03*
X+6712Y-16859D03*
X+5712Y-16859D03*
X+4712Y-16859D03*
X+3712Y-16859D03*
X+2712Y-16859D03*
X+1712Y-16859D03*
G54D12*
X-1141Y-17109D03*
X-5141Y-17109D03*
G54D11*
X-3188Y-21279D03*
X-2188Y-21279D03*
X-1188Y-21279D03*
X-188Y-21279D03*
X-188Y-18279D03*
X-1188Y-18279D03*
X-2188Y-18279D03*
X-3188Y-18279D03*
G54D12*
X-5157Y-18644D03*
X-5157Y-22644D03*
X-3307Y-22699D03*
X-307Y-22699D03*
X-314Y-23841D03*
X-3314Y-23841D03*
G54D13*
X+1802Y-21499D03*
X+1802Y-22499D03*
G54D11*
X+4743Y-22504D03*
X+5743Y-22504D03*
X+6743Y-22504D03*
G54D12*
X+8912Y-22603D03*
X+8912Y-21603D03*
X-3307Y-28998D03*
X-3307Y-24998D03*
G54D11*
X-969Y-27429D03*
X-969Y-26429D03*
X-969Y-25429D03*
X+1320Y-25449D03*
X+1320Y-26449D03*
X+1320Y-27449D03*
X+4521Y-27918D03*
X+5521Y-27918D03*
X+6521Y-27918D03*
X+7521Y-27918D03*
X+7521Y-24918D03*
X+6521Y-24918D03*
X+5521Y-24918D03*
X+4521Y-24918D03*
G54D12*
X+3090Y-23935D03*
X+3090Y-27935D03*
X+8813Y-27970D03*
X+8813Y-23970D03*
X-4787Y-27817D03*
X-4787Y-23817D03*
G54D14*
X-5118Y-30966D03*
X-5118Y-29966D03*
G54D13*
X-3288Y-29973D03*
X-3288Y-30973D03*
X-1123Y-30524D03*
X-123Y-30524D03*
X+2556Y-30480D03*
X+1556Y-30480D03*
G54D10*
X+6672Y-30681D03*
X+7672Y-30681D03*
G54D12*
X+9171Y-30235D03*
X+9171Y-29235D03*
G54D13*
X+4034Y-30485D03*
X+5034Y-30485D03*
G54D10*
X+1830Y+33031D03*
X+830Y+33031D03*
X+3527Y+33031D03*
X+4527Y+33031D03*
G54D12*
X-6490Y+11650D03*
X-2490Y+11650D03*
G54D10*
X-6750Y+14250D03*
X-6750Y+13250D03*
G54D12*
X+6889Y+31377D03*
X+2889Y+31377D03*
G54D10*
X+7120Y+33040D03*
X+6120Y+33040D03*
G54D15*
X-6850Y-31732D03*
X+10787Y-31732D03*
X+10787Y+34173D03*
X-6850Y+34173D03*
G54D16*
X-7859Y-32676D02*
X+11786Y-32676D01*
X+11786Y+35788D01*
X-7859Y+35788D01*
X-7859Y-32676D01*
M00*
