G04 PROTEUS RS274X GERBER FILE*
%FSLAX24Y24*%
%MOIN*%
%ADD10R,0.0800X0.0800*%
%ADD11R,0.0600X0.0600*%
%ADD12C,0.0700*%
%ADD13C,0.0800*%
%ADD14C,0.0600*%
%ADD15C,0.1500*%
%ADD16C,0.0080*%
G54D10*
X-3346Y+33035D03*
X-4346Y+33035D03*
X-1841Y+33035D03*
X-841Y+33035D03*
G54D11*
X+6719Y+23283D03*
X+5719Y+23283D03*
X+4719Y+23283D03*
X+3719Y+23283D03*
X+2719Y+23283D03*
X+1719Y+23283D03*
X+719Y+23283D03*
X-280Y+23283D03*
X-1280Y+23283D03*
X-2280Y+23283D03*
G54D12*
X-4044Y+19740D03*
X-4044Y+23740D03*
X+8593Y+23677D03*
X+8593Y+19677D03*
G54D11*
X-891Y+20616D03*
X-891Y+19616D03*
X-891Y+18616D03*
X-891Y+17616D03*
X-891Y+16616D03*
X-891Y+15616D03*
X-891Y+14616D03*
X-891Y+13616D03*
X-891Y+12616D03*
X-891Y+11616D03*
X-891Y+10616D03*
X-891Y+9616D03*
X-891Y+8616D03*
X-891Y+7616D03*
X-891Y+6616D03*
X-891Y+5616D03*
X-891Y+4616D03*
X+5108Y+4616D03*
X+5108Y+5616D03*
X+5108Y+6616D03*
X+5108Y+7616D03*
X+5108Y+8616D03*
X+5108Y+9616D03*
X+5108Y+10616D03*
X+5108Y+11616D03*
X+5108Y+12616D03*
X+5108Y+13616D03*
X+5108Y+14616D03*
X+5108Y+15616D03*
X+5108Y+16616D03*
X+5108Y+17616D03*
X+5108Y+18616D03*
X+5108Y+19616D03*
X+5108Y+20616D03*
X-1220Y-1842D03*
X-1220Y-2842D03*
X-1220Y-3842D03*
X-1220Y-4842D03*
X-1220Y-5842D03*
X-1220Y-6842D03*
X-1220Y-7842D03*
X-1220Y-8842D03*
X-1220Y-9842D03*
X-1220Y-10842D03*
X-1220Y-11842D03*
X+5078Y-11842D03*
X+5078Y-10842D03*
X+5078Y-9842D03*
X+5078Y-8842D03*
X+5078Y-7842D03*
X+5078Y-6842D03*
X+5078Y-5842D03*
X+5078Y-4842D03*
X+5078Y-3842D03*
X+5078Y-2842D03*
X+5078Y-1842D03*
X+1712Y-19859D03*
X+2712Y-19859D03*
X+3712Y-19859D03*
X+4712Y-19859D03*
X+5712Y-19859D03*
X+6712Y-19859D03*
X+7712Y-19859D03*
X+8712Y-19859D03*
X+8712Y-16859D03*
X+7712Y-16859D03*
X+6712Y-16859D03*
X+5712Y-16859D03*
X+4712Y-16859D03*
X+3712Y-16859D03*
X+2712Y-16859D03*
X+1712Y-16859D03*
G54D12*
X-1141Y-17109D03*
X-5141Y-17109D03*
G54D11*
X-3188Y-21279D03*
X-2188Y-21279D03*
X-1188Y-21279D03*
X-188Y-21279D03*
X-188Y-18279D03*
X-1188Y-18279D03*
X-2188Y-18279D03*
X-3188Y-18279D03*
G54D12*
X-5157Y-18644D03*
X-5157Y-22644D03*
X-3307Y-22699D03*
X-307Y-22699D03*
X-314Y-23841D03*
X-3314Y-23841D03*
G54D13*
X+1802Y-21499D03*
X+1802Y-22499D03*
G54D11*
X+4743Y-22504D03*
X+5743Y-22504D03*
X+6743Y-22504D03*
G54D12*
X+8912Y-22603D03*
X+8912Y-21603D03*
X-3307Y-28998D03*
X-3307Y-24998D03*
G54D11*
X-969Y-27429D03*
X-969Y-26429D03*
X-969Y-25429D03*
X+1320Y-25449D03*
X+1320Y-26449D03*
X+1320Y-27449D03*
X+4521Y-27918D03*
X+5521Y-27918D03*
X+6521Y-27918D03*
X+7521Y-27918D03*
X+7521Y-24918D03*
X+6521Y-24918D03*
X+5521Y-24918D03*
X+4521Y-24918D03*
G54D12*
X+3090Y-23935D03*
X+3090Y-27935D03*
X+8813Y-27970D03*
X+8813Y-23970D03*
X-4787Y-27817D03*
X-4787Y-23817D03*
G54D14*
X-5118Y-30966D03*
X-5118Y-29966D03*
G54D13*
X-3288Y-29973D03*
X-3288Y-30973D03*
X-1123Y-30524D03*
X-123Y-30524D03*
X+2556Y-30480D03*
X+1556Y-30480D03*
G54D10*
X+6672Y-30681D03*
X+7672Y-30681D03*
G54D12*
X+9171Y-30235D03*
X+9171Y-29235D03*
G54D13*
X+4034Y-30485D03*
X+5034Y-30485D03*
G54D10*
X+1830Y+33031D03*
X+830Y+33031D03*
X+3527Y+33031D03*
X+4527Y+33031D03*
G54D12*
X-6490Y+11650D03*
X-2490Y+11650D03*
G54D10*
X-6750Y+14250D03*
X-6750Y+13250D03*
G54D12*
X+6889Y+31377D03*
X+2889Y+31377D03*
G54D10*
X+7120Y+33040D03*
X+6120Y+33040D03*
G54D15*
X-6850Y-31732D03*
X+10787Y-31732D03*
X+10787Y+34173D03*
X-6850Y+34173D03*
G54D16*
X-7859Y-32676D02*
X+11786Y-32676D01*
X+11786Y+35788D01*
X-7859Y+35788D01*
X-7859Y-32676D01*
M00*
